2007.01.31 21:52 B C:\Denise\WEBSITE\designs\moderna\images\image00.jpg --> ftp.mitchinson.net /designs/moderna/images image00.jpg
2007.01.31 21:52 B C:\Denise\WEBSITE\designs\moderna\images\image01.jpg --> ftp.mitchinson.net /designs/moderna/images image01.jpg
2007.01.31 21:52 B C:\Denise\WEBSITE\designs\moderna\images\image02.jpg --> ftp.mitchinson.net /designs/moderna/images image02.jpg
2007.01.31 21:52 B C:\Denise\WEBSITE\designs\moderna\images\Thumbs.db --> ftp.mitchinson.net /designs/moderna/images Thumbs.db
